<?xml version="1.0" encoding="UTF-8"?>
<!DOCTYPE svg PUBLIC "-//W3C//DTD SVG 1.1//EN" "http://www.w3.org/Graphics/SVG/1.1/DTD/svg11.dtd">
<svg xmlns="http://www.w3.org/2000/svg" xmlns:xlink="http://www.w3.org/1999/xlink" version="1.1" width="1151px" height="531px" viewBox="-0.5 -0.5 1151 531"
     style="background-color: rgb(255, 255, 255);"><defs><clipPath id="mx-clip-419-159-282-26-0"><rect x="419" y="159" width="282" height="26"/></clipPath><clipPath id="mx-clip-419-193-282-26-0"><rect x="419" y="193" width="282" height="26"/></clipPath><clipPath id="mx-clip-419-279-282-26-0"><rect x="419" y="279" width="282" height="26"/></clipPath><clipPath id="mx-clip-419-313-282-26-0"><rect x="419" y="313" width="282" height="26"/></clipPath><clipPath id="mx-clip-419-339-282-26-0"><rect x="419" y="339" width="282" height="26"/></clipPath><clipPath id="mx-clip-764-159-292-26-0"><rect x="764" y="159" width="292" height="26"/></clipPath><clipPath id="mx-clip-764-193-292-24-0"><rect x="764" y="193" width="292" height="24"/></clipPath><clipPath id="mx-clip-764-217-292-26-0"><rect x="764" y="217" width="292" height="26"/></clipPath><clipPath id="mx-clip-764-243-292-26-0"><rect x="764" y="243" width="292" height="26"/></clipPath><clipPath id="mx-clip-764-269-292-26-0"><rect x="764" y="269" width="292" height="26"/></clipPath><clipPath id="mx-clip-764-295-292-26-0"><rect x="764" y="295" width="292" height="26"/></clipPath><clipPath id="mx-clip-424-465-272-30-0"><rect x="424" y="465" width="272" height="30"/></clipPath><clipPath id="mx-clip-424-495-272-30-0"><rect x="424" y="495" width="272" height="30"/></clipPath><clipPath id="mx-clip-514-371-42-22-0"><rect x="514" y="371" width="42" height="22"/></clipPath><clipPath id="mx-clip-544-396-12-16-0"><rect x="544" y="396" width="12" height="16"/></clipPath><clipPath id="mx-clip-594-375-92-22-0"><rect x="594" y="375" width="92" height="22"/></clipPath><clipPath id="mx-clip-704-375-12-27-0"><rect x="704" y="375" width="12" height="27"/></clipPath><clipPath id="mx-clip-382-452-32-22-0"><rect x="382" y="452" width="32" height="22"/></clipPath><clipPath id="mx-clip-362-452-12-27-0"><rect x="362" y="452" width="12" height="27"/></clipPath><clipPath id="mx-clip-884-465-202-30-0"><rect x="884" y="465" width="202" height="30"/></clipPath><clipPath id="mx-clip-884-495-202-30-0"><rect x="884" y="495" width="202" height="30"/></clipPath><clipPath id="mx-clip-734-405-112-30-0"><rect x="734" y="405" width="112" height="30"/></clipPath><clipPath id="mx-clip-232-495-112-30-0"><rect x="232" y="495" width="112" height="30"/></clipPath><clipPath id="mx-clip-944-55-112-30-0"><rect x="944" y="55" width="112" height="30"/></clipPath><clipPath id="mx-clip-20-81-354-42-0"><rect x="20" y="81" width="354" height="42"/></clipPath><clipPath id="mx-clip-52-220-292-42-0"><rect x="52" y="220" width="292" height="42"/></clipPath><clipPath id="mx-clip-124-415-12-27-0"><rect x="124" y="415" width="12" height="27"/></clipPath><clipPath id="mx-clip-392-255-12-27-0"><rect x="392" y="255" width="12" height="27"/></clipPath><clipPath id="mx-clip-392-179-12-27-0"><rect x="392" y="179" width="12" height="27"/></clipPath><clipPath id="mx-clip-354-219-32-22-0"><rect x="354" y="219" width="32" height="22"/></clipPath><clipPath id="mx-clip-354-179-32-22-0"><rect x="354" y="179" width="32" height="22"/></clipPath><clipPath id="mx-clip-23-363-350-30-0"><rect x="23" y="363" width="350" height="30"/></clipPath><clipPath id="mx-clip-52-495-134-30-0"><rect x="52" y="495" width="134" height="30"/></clipPath><clipPath id="mx-clip-124-393-52-22-0"><rect x="124" y="393" width="52" height="22"/></clipPath><clipPath id="mx-clip-724-455-112-22-0"><rect x="724" y="455" width="112" height="22"/></clipPath><clipPath id="mx-clip-854-455-12-27-0"><rect x="854" y="455" width="12" height="27"/></clipPath><clipPath id="mx-clip-724-485-112-22-0"><rect x="724" y="485" width="112" height="22"/></clipPath><clipPath id="mx-clip-854-485-12-27-0"><rect x="854" y="485" width="12" height="27"/></clipPath><clipPath id="mx-clip-744-15-112-22-0"><rect x="744" y="15" width="112" height="22"/></clipPath><clipPath id="mx-clip-914-15-12-27-0"><rect x="914" y="15" width="12" height="27"/></clipPath><clipPath id="mx-clip-1072-265-32-22-0"><rect x="1072" y="265" width="32" height="22"/></clipPath><clipPath id="mx-clip-1072-28-32-27-0"><rect x="1072" y="28" width="32" height="27"/></clipPath><clipPath id="mx-clip-1112-265-32-22-0"><rect x="1112" y="265" width="32" height="22"/></clipPath><clipPath id="mx-clip-1072-58-32-27-0"><rect x="1072" y="58" width="32" height="27"/></clipPath><clipPath id="mx-clip-564-85-52-22-0"><rect x="564" y="85" width="52" height="22"/></clipPath><clipPath id="mx-clip-569-63-17-22-0"><rect x="569" y="63" width="17" height="22"/></clipPath></defs><g><rect x="0" y="0" width="1150" height="530" fill="#ffffff" stroke="none" pointer-events="all"/><path d="M 560 114 L 560 60.24" fill="none" stroke="#000000" stroke-miterlimit="10" pointer-events="stroke"/><path d="M 563.5 66.12 L 560 59.12 L 556.5 66.12" fill="none" stroke="#000000" stroke-miterlimit="10" pointer-events="all"/><path d="M 1090 470 L 1095 470 Q 1100 470 1100 460 L 1100 69 Q 1100 59 1090 59 L 1062.24 59" fill="none" stroke="#000000" stroke-miterlimit="10" pointer-events="stroke"/><path d="M 1068.12 55.5 L 1061.12 59 L 1068.12 62.5" fill="none" stroke="#000000" stroke-miterlimit="10" pointer-events="all"/><path d="M 635 34 L 777.57 34 Q 787.57 34 797.57 33.98 L 937.04 33.73" fill="none" stroke="#000000" stroke-miterlimit="10" pointer-events="stroke"/><path d="M 931.16 37.23 L 938.16 33.73 L 931.16 30.23" fill="none" stroke="#000000" stroke-miterlimit="10" pointer-events="all"/><path d="M 1090 500 L 1130 500 Q 1140 500 1140 490 L 1140 40 Q 1140 30 1130 30 L 1062.24 30" fill="none" stroke="#000000" stroke-miterlimit="10" pointer-events="stroke"/><path d="M 1068.12 26.5 L 1061.12 30 L 1068.12 33.5" fill="none" stroke="#000000" stroke-miterlimit="10" pointer-events="all"/><path d="M 485 50 L 485 10 L 635 10 L 635 50" fill="#dae8fc" stroke="#6c8ebf" stroke-width="3" stroke-miterlimit="10" pointer-events="all"/><path d="M 485 50 L 485 58 L 635 58 L 635 50" fill="none" stroke="#6c8ebf" stroke-width="3" stroke-miterlimit="10" pointer-events="none"/><path d="M 485 50 L 635 50" fill="none" stroke="#6c8ebf" stroke-width="3" stroke-miterlimit="10" pointer-events="none"/><g fill="#000000" font-family="Helvetica" font-weight="bold" text-anchor="middle" font-size="12px"><text x="559.5" y="27.5">&lt;AggregateRoot&gt;</text><text x="559.5" y="41.5">Person</text></g><path d="M 485 54 L 635 54" fill="none" stroke="#000000" stroke-miterlimit="10" pointer-events="none"/><path d="M 705 164 L 730 164 Q 740 164 745.94 164 L 751.88 164" fill="none" stroke="#000000" stroke-miterlimit="10" stroke-dasharray="3 3" pointer-events="none"/><path d="M 758.88 164 L 751.88 167.5 L 751.88 160.5 Z" fill="none" stroke="#000000" stroke-miterlimit="10" pointer-events="none"/><path d="M 415 154 L 415 114 L 705 114 L 705 154" fill="#dae8fc" stroke="#6c8ebf" stroke-width="3" stroke-miterlimit="10" pointer-events="none"/><path d="M 415 154 L 415 214 L 705 214 L 705 154" fill="none" stroke="#6c8ebf" stroke-width="3" stroke-miterlimit="10" pointer-events="none"/><path d="M 415 154 L 705 154" fill="none" stroke="#6c8ebf" stroke-width="3" stroke-miterlimit="10" pointer-events="none"/><g fill="#000000" font-family="Helvetica" font-weight="bold" text-anchor="middle" font-size="12px"><text x="559.5" y="131.5">&lt;Repository&gt;</text><text x="559.5" y="145.5">PersonRepository</text></g><g fill="#000000" font-family="Helvetica" clip-path="url(#mx-clip-419-159-282-26-0)" font-size="12px"><text x="420.5" y="171.5">- people : Set&lt;Person&gt;</text></g><path d="M 415 184 L 705 184" fill="none" stroke="#000000" stroke-miterlimit="10" pointer-events="none"/><g fill="#000000" font-family="Helvetica" clip-path="url(#mx-clip-419-193-282-26-0)" font-size="12px"><text x="420.5" y="205.5">+ containsByID (personID : PersonID) : Boolean</text></g><path d="M 560 360 L 560 417.76" fill="none" stroke="#000000" stroke-miterlimit="10" pointer-events="none"/><path d="M 556.5 411.88 L 560 418.88 L 563.5 411.88" fill="none" stroke="#000000" stroke-miterlimit="10" pointer-events="none"/><path d="M 705 284 L 730 284 Q 740 284 745.94 284 L 751.88 284" fill="none" stroke="#000000" stroke-miterlimit="10" stroke-dasharray="3 3" pointer-events="none"/><path d="M 758.88 284 L 751.88 287.5 L 751.88 280.5 Z" fill="none" stroke="#000000" stroke-miterlimit="10" pointer-events="none"/><path d="M 415 274 L 415 234 L 705 234 L 705 274" fill="#dae8fc" stroke="#6c8ebf" stroke-width="3" stroke-miterlimit="10" pointer-events="none"/><path d="M 415 274 L 415 360 L 705 360 L 705 274" fill="none" stroke="#6c8ebf" stroke-width="3" stroke-miterlimit="10" pointer-events="none"/><path d="M 415 274 L 705 274" fill="none" stroke="#6c8ebf" stroke-width="3" stroke-miterlimit="10" pointer-events="none"/><g fill="#000000" font-family="Helvetica" font-weight="bold" text-anchor="middle" font-size="12px"><text x="559.5" y="251.5">&lt;Repository&gt;</text><text x="559.5" y="265.5">GroupRepository</text></g><g fill="#000000" font-family="Helvetica" clip-path="url(#mx-clip-419-279-282-26-0)" font-size="12px"><text x="420.5" y="291.5">- groups : Set&lt;Group&gt;</text></g><path d="M 415 304 L 705 304" fill="none" stroke="#000000" stroke-miterlimit="10" pointer-events="none"/><g fill="#000000" font-family="Helvetica" clip-path="url(#mx-clip-419-313-282-26-0)" font-size="12px"><text x="420.5" y="325.5">+ containsByID (groupID : GroupID) : Boolean</text></g><g fill="#000000" font-family="Helvetica" clip-path="url(#mx-clip-419-339-282-26-0)" font-size="12px"><text x="420.5" y="351.5">+ findByID (groupID : GroupID): Group</text></g><path d="M 760 154 L 760 114 L 1060 114 L 1060 154" fill="#dae8fc" stroke="#6c8ebf" stroke-width="3" stroke-miterlimit="10" pointer-events="none"/><path d="M 760 154 L 760 316 L 1060 316 L 1060 154" fill="none" stroke="#6c8ebf" stroke-width="3" stroke-miterlimit="10" pointer-events="none"/><path d="M 760 154 L 1060 154" fill="none" stroke="#6c8ebf" stroke-width="3" stroke-miterlimit="10" pointer-events="none"/><g fill="#000000" font-family="Helvetica" font-weight="bold" text-anchor="middle" font-size="12px"><text x="909.5" y="131.5">&lt;Interface&gt;</text><text x="909.5" y="145.5">Repository</text></g><g fill="#000000" font-family="Helvetica" clip-path="url(#mx-clip-764-159-292-26-0)" font-size="12px"><text x="765.5" y="171.5">- list: Set&lt;Entity&gt;</text></g><path d="M 760 184 L 1060 184" fill="none" stroke="#000000" stroke-miterlimit="10" pointer-events="none"/><g fill="#000000" font-family="Helvetica" clip-path="url(#mx-clip-764-193-292-24-0)" font-size="12px"><text x="765.5" y="205.5">+ containsOfIdentity (entityID : EntityID) : Boolean</text></g><g fill="#000000" font-family="Helvetica" clip-path="url(#mx-clip-764-217-292-26-0)" font-size="12px"><text x="765.5" y="229.5">+findAll ( ) : Iterable &lt;Entity&gt;</text></g><g fill="#000000" font-family="Helvetica" clip-path="url(#mx-clip-764-243-292-26-0)" font-size="12px"><text x="765.5" y="255.5">+ add ( entity: Entity) : Boolean</text></g><g fill="#000000" font-family="Helvetica" clip-path="url(#mx-clip-764-269-292-26-0)" font-size="12px"><text x="765.5" y="281.5">+ findByID (entityID : EntityID) : Optional &lt;Entity&gt;</text></g><g fill="#000000" font-family="Helvetica" clip-path="url(#mx-clip-764-295-292-26-0)" font-size="12px"><text x="765.5" y="307.5">+ contains (entity : Entity) : Boolean</text></g><path d="M 197.32 117.5 L 197.66 164.26" fill="none" stroke="#000000" stroke-miterlimit="10" stroke-dasharray="3 3" pointer-events="none"/><path d="M 191.07 152.43 L 197.67 165.38 L 204.07 152.34" fill="none" stroke="#000000" stroke-miterlimit="10" pointer-events="none"/><path d="M 348 200 L 348 200 L 412.76 200" fill="none" stroke="#000000" stroke-miterlimit="10" pointer-events="none"/><path d="M 406.88 203.5 L 413.88 200 L 406.88 196.5" fill="none" stroke="#000000" stroke-miterlimit="10" pointer-events="none"/><path d="M 348 240 L 370 240 L 370 284 L 412.76 284" fill="none" stroke="#000000" stroke-miterlimit="10" pointer-events="none"/><path d="M 406.88 287.5 L 413.88 284 L 406.88 280.5" fill="none" stroke="#000000" stroke-miterlimit="10" pointer-events="none"/><path d="M 630 420 L 630 405 Q 630 395 640 395 L 727.76 395" fill="none" stroke="#000000" stroke-miterlimit="10" pointer-events="none"/><path d="M 721.88 398.5 L 728.88 395 L 721.88 391.5" fill="none" stroke="#000000" stroke-miterlimit="10" pointer-events="none"/><path d="M 420 470 L 400 470 L 350.24 470" fill="none" stroke="#000000" stroke-miterlimit="10" pointer-events="none"/><path d="M 356.12 466.5 L 349.12 470 L 356.12 473.5" fill="none" stroke="#000000" stroke-miterlimit="10" pointer-events="none"/><path d="M 700 504.06 L 830 504.14 L 877.76 504.14" fill="none" stroke="#000000" stroke-miterlimit="10" pointer-events="none"/><path d="M 871.88 507.64 L 878.88 504.14 L 871.88 500.64" fill="none" stroke="#000000" stroke-miterlimit="10" pointer-events="none"/><path d="M 700 474.06 L 840 474.14 L 877.76 474.14" fill="none" stroke="#000000" stroke-miterlimit="10" pointer-events="none"/><path d="M 871.88 477.64 L 878.88 474.14 L 871.88 470.64" fill="none" stroke="#000000" stroke-miterlimit="10" pointer-events="none"/><path d="M 420 460 L 420 420 L 700 420 L 700 460" fill="#dae8fc" stroke="#6c8ebf" stroke-width="3" stroke-miterlimit="10" pointer-events="none"/><path d="M 420 460 L 420 520 L 700 520 L 700 460" fill="none" stroke="#6c8ebf" stroke-width="3" stroke-miterlimit="10" pointer-events="none"/><path d="M 420 460 L 700 460" fill="none" stroke="#6c8ebf" stroke-width="3" stroke-miterlimit="10" pointer-events="none"/><g fill="#000000" font-family="Helvetica" font-weight="bold" text-anchor="middle" font-size="12px"><text x="559.5" y="437.5">&lt;AggregateRoot&gt;</text><text x="559.5" y="451.5">Group</text></g><g fill="#000000" font-family="Helvetica" clip-path="url(#mx-clip-424-465-272-30-0)" font-size="12px"><text x="425.5" y="477.5">+ addMember(personID : PersonID) : Boolean</text></g><g fill="#000000" font-family="Helvetica" clip-path="url(#mx-clip-424-495-272-30-0)" font-size="12px"><text x="425.5" y="507.5">+ getMembers( ) : PersonIDs</text></g><g fill="#000000" font-family="Helvetica" clip-path="url(#mx-clip-514-371-42-22-0)" font-size="14px"><text x="515.5" y="385.5">stores</text></g><g fill="#000000" font-family="Helvetica" clip-path="url(#mx-clip-544-396-12-16-0)" font-size="14px"><text x="545.5" y="410.5">*</text></g><g fill="#000000" font-family="Helvetica" clip-path="url(#mx-clip-594-375-92-22-0)" font-size="14px"><text x="595.5" y="389.5">is identified by</text></g><g fill="#000000" font-family="Helvetica" clip-path="url(#mx-clip-704-375-12-27-0)" font-size="14px"><text x="705.5" y="389.5">1</text></g><g fill="#000000" font-family="Helvetica" clip-path="url(#mx-clip-382-452-32-22-0)" font-size="14px"><text x="383.5" y="466">has</text></g><g fill="#000000" font-family="Helvetica" clip-path="url(#mx-clip-362-452-12-27-0)" font-size="14px"><text x="363.5" y="466">1</text></g><path d="M 880 460 L 880 420 L 1090 420 L 1090 460" fill="#dae8fc" stroke="#6c8ebf" stroke-width="3" stroke-miterlimit="10" pointer-events="none"/><path d="M 880 460 L 880 520 L 1090 520 L 1090 460" fill="none" stroke="#6c8ebf" stroke-width="3" stroke-miterlimit="10" pointer-events="none"/><path d="M 880 460 L 1090 460" fill="none" stroke="#6c8ebf" stroke-width="3" stroke-miterlimit="10" pointer-events="none"/><g fill="#000000" font-family="Helvetica" font-weight="bold" text-anchor="middle" font-size="12px"><text x="984.5" y="437.5">&lt;VO&gt;</text><text x="984.5" y="451.5">PersonsIDs</text></g><g fill="#000000" font-family="Helvetica" clip-path="url(#mx-clip-884-465-202-30-0)" font-size="12px"><text x="885.5" y="477.5">- personIDs : Set&lt;PersonID&gt;</text></g><g fill="#000000" font-family="Helvetica" clip-path="url(#mx-clip-884-495-202-30-0)" font-size="12px"><text x="885.5" y="507.5">+ getPersonIDs ( ) :  Set&lt;PersonID&gt;</text></g><path d="M 730 400 L 730 360 L 850 360 L 850 400" fill="#dae8fc" stroke="#6c8ebf" stroke-width="3" stroke-miterlimit="10" pointer-events="none"/><path d="M 730 400 L 730 430 L 850 430 L 850 400" fill="none" stroke="#6c8ebf" stroke-width="3" stroke-miterlimit="10" pointer-events="none"/><path d="M 730 400 L 850 400" fill="none" stroke="#6c8ebf" stroke-width="3" stroke-miterlimit="10" pointer-events="none"/><g fill="#000000" font-family="Helvetica" font-weight="bold" text-anchor="middle" font-size="12px"><text x="789.5" y="377.5">&lt;VO&gt;</text><text x="789.5" y="391.5">GroupID</text></g><g fill="#000000" font-family="Helvetica" clip-path="url(#mx-clip-734-405-112-30-0)" font-size="12px"><text x="735.5" y="417.5">- groupID : Long</text></g><path d="M 228 490 L 228 450 L 348 450 L 348 490" fill="#dae8fc" stroke="#6c8ebf" stroke-width="3" stroke-miterlimit="10" pointer-events="none"/><path d="M 228 490 L 228 520 L 348 520 L 348 490" fill="none" stroke="#6c8ebf" stroke-width="3" stroke-miterlimit="10" pointer-events="none"/><path d="M 228 490 L 348 490" fill="none" stroke="#6c8ebf" stroke-width="3" stroke-miterlimit="10" pointer-events="none"/><g fill="#000000" font-family="Helvetica" font-weight="bold" text-anchor="middle" font-size="12px"><text x="287.5" y="467.5">&lt;VO&gt;</text><text x="287.5" y="481.5">LedgerID</text></g><g fill="#000000" font-family="Helvetica" clip-path="url(#mx-clip-232-495-112-30-0)" font-size="12px"><text x="233.5" y="507.5">- ledgerID : Long</text></g><path d="M 940 50 L 940 10 L 1060 10 L 1060 50" fill="#dae8fc" stroke="#6c8ebf" stroke-width="3" stroke-miterlimit="10" pointer-events="none"/><path d="M 940 50 L 940 80 L 1060 80 L 1060 50" fill="none" stroke="#6c8ebf" stroke-width="3" stroke-miterlimit="10" pointer-events="none"/><path d="M 940 50 L 1060 50" fill="none" stroke="#6c8ebf" stroke-width="3" stroke-miterlimit="10" pointer-events="none"/><g fill="#000000" font-family="Helvetica" font-weight="bold" text-anchor="middle" font-size="12px"><text x="999.5" y="27.5">&lt;VO&gt;</text><text x="999.5" y="41.5">PersonID</text></g><g fill="#000000" font-family="Helvetica" clip-path="url(#mx-clip-944-55-112-30-0)" font-size="12px"><text x="945.5" y="67.5">- personID : Long</text></g><path d="M 16 67.5 L 16 27.5 L 378 27.5 L 378 67.5" fill="#dae8fc" stroke="#6c8ebf" stroke-width="3" stroke-miterlimit="10" pointer-events="none"/><path d="M 16 67.5 L 16 117.5 L 378 117.5 L 378 67.5" fill="none" stroke="#6c8ebf" stroke-width="3" stroke-miterlimit="10" pointer-events="none"/><path d="M 16 67.5 L 378 67.5" fill="none" stroke="#6c8ebf" stroke-width="3" stroke-miterlimit="10" pointer-events="none"/><g fill="#000000" font-family="Helvetica" font-weight="bold" text-anchor="middle" font-size="12px"><text x="196.5" y="45">&lt;Controller&gt;</text><text x="196.5" y="59">AddMemberToGroupController</text></g><path d="M 16 71.5 L 378 71.5" fill="none" stroke="#000000" stroke-miterlimit="10" pointer-events="none"/><g fill="#000000" font-family="Helvetica" clip-path="url(#mx-clip-20-81-354-42-0)" font-size="12px"><text x="21.5" y="93">+ addMemberToGroup (addMemberService : AddMemberService,</text><text x="21.5" y="107">personID : PersonID, groupID : GroupID) : MembersDTO</text></g><path d="M 198 256.5 L 198 307.76" fill="none" stroke="#000000" stroke-miterlimit="10" stroke-dasharray="3 3" pointer-events="none"/><path d="M 194.5 301.88 L 198 308.88 L 201.5 301.88" fill="none" stroke="#000000" stroke-miterlimit="10" pointer-events="none"/><path d="M 48 206.5 L 48 166.5 L 348 166.5 L 348 206.5" fill="#dae8fc" stroke="#6c8ebf" stroke-width="3" stroke-miterlimit="10" pointer-events="none"/><path d="M 48 206.5 L 48 256.5 L 348 256.5 L 348 206.5" fill="none" stroke="#6c8ebf" stroke-width="3" stroke-miterlimit="10" pointer-events="none"/><path d="M 48 206.5 L 348 206.5" fill="none" stroke="#6c8ebf" stroke-width="3" stroke-miterlimit="10" pointer-events="none"/><g fill="#000000" font-family="Helvetica" font-weight="bold" text-anchor="middle" font-size="12px"><text x="197.5" y="184">&lt;Service&gt;</text><text x="197.5" y="198">AddMemberService</text></g><path d="M 48 210.5 L 348 210.5" fill="none" stroke="#000000" stroke-miterlimit="10" pointer-events="none"/><g fill="#000000" font-family="Helvetica" clip-path="url(#mx-clip-52-220-292-42-0)" font-size="12px"><text x="53.5" y="232">+ addMember (personID : PersonID, </text><text x="53.5" y="246">groupID : GroupID) : MembersDTO</text></g><g fill="#000000" font-family="Helvetica" clip-path="url(#mx-clip-124-415-12-27-0)" font-size="14px"><text x="125.5" y="429.5">1</text></g><g fill="#000000" font-family="Helvetica" clip-path="url(#mx-clip-392-255-12-27-0)" font-size="14px"><text x="393.5" y="269">1</text></g><g fill="#000000" font-family="Helvetica" clip-path="url(#mx-clip-392-179-12-27-0)" font-size="14px"><text x="393.5" y="193.5">1</text></g><g fill="#000000" font-family="Helvetica" clip-path="url(#mx-clip-354-219-32-22-0)" font-size="14px"><text x="355.5" y="233.5">has</text></g><g fill="#000000" font-family="Helvetica" clip-path="url(#mx-clip-354-179-32-22-0)" font-size="14px"><text x="355.5" y="193.5">has</text></g><path d="M 119 388 L 119 420 L 119 443.63" fill="none" stroke="#000000" stroke-miterlimit="10" pointer-events="none"/><path d="M 119 448.88 L 115.5 441.88 L 119 443.63 L 122.5 441.88 Z" fill="#000000" stroke="#000000" stroke-miterlimit="10" pointer-events="none"/><path d="M 19 350 L 19 310 L 377 310 L 377 350" fill="#dae8fc" stroke="#6c8ebf" stroke-width="3" stroke-miterlimit="10" pointer-events="none"/><path d="M 19 350 L 19 388 L 377 388 L 377 350" fill="none" stroke="#6c8ebf" stroke-width="3" stroke-miterlimit="10" pointer-events="none"/><path d="M 19 350 L 377 350" fill="none" stroke="#6c8ebf" stroke-width="3" stroke-miterlimit="10" pointer-events="none"/><g fill="#000000" font-family="Helvetica" font-weight="bold" text-anchor="middle" font-size="12px"><text x="197.5" y="327.5">&lt;Assembler&gt;</text><text x="197.5" y="341.5">AddMemberAssembler</text></g><path d="M 19 354 L 377 354" fill="none" stroke="#000000" stroke-miterlimit="10" pointer-events="none"/><g fill="#000000" font-family="Helvetica" clip-path="url(#mx-clip-23-363-350-30-0)" font-size="12px"><text x="24.5" y="375.5">+ createDTOFromDomainObject (group : Group) : MembersDTO</text></g><path d="M 48 490 L 48 450 L 190 450 L 190 490" fill="#dae8fc" stroke="#6c8ebf" stroke-width="3" stroke-miterlimit="10" pointer-events="none"/><path d="M 48 490 L 48 520 L 190 520 L 190 490" fill="none" stroke="#6c8ebf" stroke-width="3" stroke-miterlimit="10" pointer-events="none"/><path d="M 48 490 L 190 490" fill="none" stroke="#6c8ebf" stroke-width="3" stroke-miterlimit="10" pointer-events="none"/><g fill="#000000" font-family="Helvetica" font-weight="bold" text-anchor="middle" font-size="12px"><text x="118.5" y="467.5">&lt;VO&gt;</text><text x="118.5" y="481.5">MembersDTO</text></g><g fill="#000000" font-family="Helvetica" clip-path="url(#mx-clip-52-495-134-30-0)" font-size="12px"><text x="53.5" y="507.5">- members: Set&lt;String&gt;</text></g><g fill="#000000" font-family="Helvetica" clip-path="url(#mx-clip-124-393-52-22-0)" font-size="14px"><text x="125.5" y="407.5">creates</text></g><g fill="#000000" font-family="Helvetica" clip-path="url(#mx-clip-724-455-112-22-0)" font-size="14px"><text x="725.5" y="469.5">has members list</text></g><g fill="#000000" font-family="Helvetica" clip-path="url(#mx-clip-854-455-12-27-0)" font-size="14px"><text x="855.5" y="469.5">1</text></g><g fill="#000000" font-family="Helvetica" clip-path="url(#mx-clip-724-485-112-22-0)" font-size="14px"><text x="725.5" y="499.5">has managers list</text></g><g fill="#000000" font-family="Helvetica" clip-path="url(#mx-clip-854-485-12-27-0)" font-size="14px"><text x="855.5" y="499.5">1</text></g><g fill="#000000" font-family="Helvetica" clip-path="url(#mx-clip-744-15-112-22-0)" font-size="14px"><text x="745.5" y="29.5">is identified by</text></g><g fill="#000000" font-family="Helvetica" clip-path="url(#mx-clip-914-15-12-27-0)" font-size="14px"><text x="915.5" y="29.5">1</text></g><g fill="#000000" font-family="Helvetica" clip-path="url(#mx-clip-1072-265-32-22-0)" font-size="14px"><text x="1073.5" y="279.5">has</text></g><g fill="#000000" font-family="Helvetica" clip-path="url(#mx-clip-1072-28-32-27-0)" font-size="14px"><text x="1073.5" y="42">1..*</text></g><g fill="#000000" font-family="Helvetica" clip-path="url(#mx-clip-1112-265-32-22-0)" font-size="14px"><text x="1113.5" y="279.5">has</text></g><g fill="#000000" font-family="Helvetica" clip-path="url(#mx-clip-1072-58-32-27-0)" font-size="14px"><text x="1073.5" y="72.5">1..*</text></g><g fill="#000000" font-family="Helvetica" clip-path="url(#mx-clip-564-85-52-22-0)" font-size="14px"><text x="565.5" y="99.5">stores</text></g><g fill="#000000" font-family="Helvetica" clip-path="url(#mx-clip-569-63-17-22-0)" font-size="14px"><text x="570.5" y="77.5">*</text></g></g></svg>