<?xml version="1.0" encoding="UTF-8"?>
<!DOCTYPE svg PUBLIC "-//W3C//DTD SVG 1.1//EN" "http://www.w3.org/Graphics/SVG/1.1/DTD/svg11.dtd">
<svg xmlns="http://www.w3.org/2000/svg" version="1.1" width="1341px" height="802px" viewBox="-0.5 -0.5 1341 802"
     style="background-color: rgb(255, 255, 255);">
    <defs>
        <clipPath id="mx-clip-724-627-92-22-0">
            <rect x="724" y="627" width="92" height="22"/>
        </clipPath>
        <clipPath id="mx-clip-714-600-12-27-0">
            <rect x="714" y="600" width="12" height="27"/>
        </clipPath>
        <clipPath id="mx-clip-548-627-32-22-0">
            <rect x="548" y="627" width="32" height="22"/>
        </clipPath>
        <clipPath id="mx-clip-548-600-12-27-0">
            <rect x="548" y="600" width="12" height="27"/>
        </clipPath>
        <clipPath id="mx-clip-1174-346-12-27-0">
            <rect x="1174" y="346" width="12" height="27"/>
        </clipPath>
        <clipPath id="mx-clip-1194-395-52-22-0">
            <rect x="1194" y="395" width="52" height="22"/>
        </clipPath>
        <clipPath id="mx-clip-704-705-112-22-0">
            <rect x="704" y="705" width="112" height="22"/>
        </clipPath>
        <clipPath id="mx-clip-854-705-12-27-0">
            <rect x="854" y="705" width="12" height="27"/>
        </clipPath>
        <clipPath id="mx-clip-704-745-112-22-0">
            <rect x="704" y="745" width="112" height="22"/>
        </clipPath>
        <clipPath id="mx-clip-854-745-12-27-0">
            <rect x="854" y="745" width="12" height="27"/>
        </clipPath>
        <clipPath id="mx-clip-1124-689-32-22-0">
            <rect x="1124" y="689" width="32" height="22"/>
        </clipPath>
        <clipPath id="mx-clip-1174-685-32-30-0">
            <rect x="1174" y="685" width="32" height="30"/>
        </clipPath>
        <clipPath id="mx-clip-1124-743-32-22-0">
            <rect x="1124" y="743" width="32" height="22"/>
        </clipPath>
        <clipPath id="mx-clip-1174-740-32-27-0">
            <rect x="1174" y="740" width="32" height="27"/>
        </clipPath>
        <clipPath id="mx-clip-428-153-354-42-0">
            <rect x="428" y="153" width="354" height="42"/>
        </clipPath>
        <clipPath id="mx-clip-428-195-354-42-0">
            <rect x="428" y="195" width="354" height="42"/>
        </clipPath>
        <clipPath id="mx-clip-1274-292-12-27-0">
            <rect x="1274" y="292" width="12" height="27"/>
        </clipPath>
        <clipPath id="mx-clip-1264-373-52-22-0">
            <rect x="1264" y="373" width="52" height="22"/>
        </clipPath>
        <clipPath id="mx-clip-1294-154-12-27-0">
            <rect x="1294" y="154" width="12" height="27"/>
        </clipPath>
        <clipPath id="mx-clip-1264-181-52-22-0">
            <rect x="1264" y="181" width="52" height="22"/>
        </clipPath>
        <clipPath id="mx-clip-884-165-122-30-0">
            <rect x="884" y="165" width="122" height="30"/>
        </clipPath>
        <clipPath id="mx-clip-438-403-332-42-0">
            <rect x="438" y="403" width="332" height="42"/>
        </clipPath>
        <clipPath id="mx-clip-438-445-332-30-0">
            <rect x="438" y="445" width="332" height="30"/>
        </clipPath>
        <clipPath id="mx-clip-14-585-282-30-0">
            <rect x="14" y="585" width="282" height="30"/>
        </clipPath>
        <clipPath id="mx-clip-14-615-282-30-0">
            <rect x="14" y="615" width="282" height="30"/>
        </clipPath>
        <clipPath id="mx-clip-14-645-282-30-0">
            <rect x="14" y="645" width="282" height="30"/>
        </clipPath>
        <clipPath id="mx-clip-14-675-282-30-0">
            <rect x="14" y="675" width="282" height="30"/>
        </clipPath>
        <clipPath id="mx-clip-14-705-282-30-0">
            <rect x="14" y="705" width="282" height="30"/>
        </clipPath>
        <clipPath id="mx-clip-14-735-282-30-0">
            <rect x="14" y="735" width="282" height="30"/>
        </clipPath>
        <clipPath id="mx-clip-14-765-282-30-0">
            <rect x="14" y="765" width="282" height="30"/>
        </clipPath>
        <clipPath id="mx-clip-884-735-202-30-0">
            <rect x="884" y="735" width="202" height="30"/>
        </clipPath>
        <clipPath id="mx-clip-884-765-202-30-0">
            <rect x="884" y="765" width="202" height="30"/>
        </clipPath>
        <clipPath id="mx-clip-384-705-272-30-0">
            <rect x="384" y="705" width="272" height="30"/>
        </clipPath>
        <clipPath id="mx-clip-384-735-272-30-0">
            <rect x="384" y="735" width="272" height="30"/>
        </clipPath>
        <clipPath id="mx-clip-384-765-272-30-0">
            <rect x="384" y="765" width="272" height="30"/>
        </clipPath>
        <clipPath id="mx-clip-654-571-112-30-0">
            <rect x="654" y="571" width="112" height="30"/>
        </clipPath>
        <clipPath id="mx-clip-14-221-282-26-0">
            <rect x="14" y="221" width="282" height="26"/>
        </clipPath>
        <clipPath id="mx-clip-14-255-282-26-0">
            <rect x="14" y="255" width="282" height="26"/>
        </clipPath>
        <clipPath id="mx-clip-14-281-282-26-0">
            <rect x="14" y="281" width="282" height="26"/>
        </clipPath>
        <clipPath id="mx-clip-14-307-282-26-0">
            <rect x="14" y="307" width="282" height="26"/>
        </clipPath>
        <clipPath id="mx-clip-14-65-282-26-0">
            <rect x="14" y="65" width="282" height="26"/>
        </clipPath>
        <clipPath id="mx-clip-14-91-282-26-0">
            <rect x="14" y="91" width="282" height="26"/>
        </clipPath>
        <clipPath id="mx-clip-14-117-282-26-0">
            <rect x="14" y="117" width="282" height="26"/>
        </clipPath>
        <clipPath id="mx-clip-484-571-112-30-0">
            <rect x="484" y="571" width="112" height="30"/>
        </clipPath>
        <clipPath id="mx-clip-14-423-350-32-0">
            <rect x="14" y="423" width="350" height="32"/>
        </clipPath>
        <clipPath id="mx-clip-14-455-350-32-0">
            <rect x="14" y="455" width="350" height="32"/>
        </clipPath>
        <clipPath id="mx-clip-836-495-490-22-0">
            <rect x="836" y="495" width="490" height="22"/>
        </clipPath>
        <clipPath id="mx-clip-836-517-490-42-0">
            <rect x="836" y="517" width="490" height="42"/>
        </clipPath>
        <clipPath id="mx-clip-836-559-490-28-0">
            <rect x="836" y="559" width="490" height="28"/>
        </clipPath>
        <clipPath id="mx-clip-836-266-282-26-0">
            <rect x="836" y="266" width="282" height="26"/>
        </clipPath>
        <clipPath id="mx-clip-834-64-282-26-0">
            <rect x="834" y="64" width="282" height="26"/>
        </clipPath>
        <clipPath id="mx-clip-1014-363-142-30-0">
            <rect x="1014" y="363" width="142" height="30"/>
        </clipPath>
        <clipPath id="mx-clip-1014-393-142-30-0">
            <rect x="1014" y="393" width="142" height="30"/>
        </clipPath>
        <clipPath id="mx-clip-1154-56-162-30-0">
            <rect x="1154" y="56" width="162" height="30"/>
        </clipPath>
        <clipPath id="mx-clip-1154-86-162-30-0">
            <rect x="1154" y="86" width="162" height="30"/>
        </clipPath>
        <clipPath id="mx-clip-1154-116-162-30-0">
            <rect x="1154" y="116" width="162" height="30"/>
        </clipPath>
        <clipPath id="mx-clip-1144-262-152-30-0">
            <rect x="1144" y="262" width="152" height="30"/>
        </clipPath>
        <clipPath id="mx-clip-1214-745-112-30-0">
            <rect x="1214" y="745" width="112" height="30"/>
        </clipPath>
        <clipPath id="mx-clip-394-575-42-22-0">
            <rect x="394" y="575" width="42" height="22"/>
        </clipPath>
        <clipPath id="mx-clip-394-625-12-27-0">
            <rect x="394" y="625" width="12" height="27"/>
        </clipPath>
    </defs>
    <g>
        <rect x="0" y="0" width="1340" height="800" fill="#ffffff" stroke="none" pointer-events="all"/>
        <path d="M 1101.99 760 L 1150 760 L 1210 760" fill="none" stroke="#000000" stroke-miterlimit="10"
              pointer-events="stroke"/>
        <path d="M 1090.99 760 L 1096.49 756.76 L 1101.99 760 L 1096.49 763.24 Z" fill="none" stroke="#000000"
              stroke-miterlimit="10" pointer-events="all"/>
        <path d="M 1101.99 710 L 1190 710 L 1210 710" fill="none" stroke="#000000" stroke-miterlimit="10"
              pointer-events="stroke"/>
        <path d="M 1090.99 710 L 1096.49 706.76 L 1101.99 710 L 1096.49 713.24 Z" fill="none" stroke="#000000"
              stroke-miterlimit="10" pointer-events="all"/>
        <path d="M 887 287 L 887 310 Q 887 320 887 329.19 L 887 338.38" fill="none" stroke="#000000"
              stroke-miterlimit="10" stroke-dasharray="3 3" pointer-events="stroke"/>
        <path d="M 887 349.38 L 881.5 338.38 L 892.5 338.38 Z" fill="none" stroke="#000000" stroke-miterlimit="10"
              pointer-events="all"/>
        <path d="M 270 328 L 270 340 L 390 340 L 390 657.76" fill="none" stroke="#000000" stroke-miterlimit="10"
              pointer-events="stroke"/>
        <path d="M 384.5 647.88 L 390 658.88 L 395.5 647.88" fill="none" stroke="#000000" stroke-miterlimit="10"
              pointer-events="all"/>
        <path d="M 300 310 L 410 310 L 410 490 L 800 490 L 800 375 L 819.88 375" fill="none" stroke="#000000"
              stroke-miterlimit="10" stroke-dasharray="3 3" pointer-events="stroke"/>
        <path d="M 830.88 375 L 819.88 380.5 L 819.88 369.5 Z" fill="none" stroke="#000000" stroke-miterlimit="10"
              pointer-events="all"/>
        <path d="M 604.48 232 L 604.2 267.76" fill="none" stroke="#000000" stroke-miterlimit="10" stroke-dasharray="3 3"
              pointer-events="stroke"/>
        <path d="M 597.8 255.83 L 604.2 268.88 L 610.8 255.93" fill="none" stroke="#000000" stroke-miterlimit="10"
              pointer-events="all"/>
        <path d="M 768 280 L 790 280 L 829.76 280" fill="none" stroke="#000000" stroke-miterlimit="10"
              pointer-events="stroke"/>
        <path d="M 823.88 283.5 L 830.88 280 L 823.88 276.5" fill="none" stroke="#000000" stroke-miterlimit="10"
              pointer-events="all"/>
        <path d="M 440 287 L 400 287 L 302.24 287" fill="none" stroke="#000000" stroke-miterlimit="10"
              pointer-events="stroke"/>
        <path d="M 312.12 281.5 L 301.12 287 L 312.12 292.5" fill="none" stroke="#000000" stroke-miterlimit="10"
              pointer-events="all"/>
        <path d="M 671.99 680 L 710 680 L 710 596" fill="none" stroke="#000000" stroke-miterlimit="10"
              pointer-events="stroke"/>
        <path d="M 660.99 680 L 666.49 676.76 L 671.99 680 L 666.49 683.24 Z" fill="#000000" stroke="#000000"
              stroke-miterlimit="10" pointer-events="all"/>
        <path d="M 540 648.01 L 540 650 L 540 596" fill="none" stroke="#000000" stroke-miterlimit="10"
              pointer-events="stroke"/>
        <path d="M 540 659.01 L 536.76 653.51 L 540 648.01 L 543.24 653.51 Z" fill="#000000" stroke="#000000"
              stroke-miterlimit="10" pointer-events="all"/>
        <path d="M 671.99 770 L 730 770 L 880 770" fill="none" stroke="#000000" stroke-miterlimit="10"
              pointer-events="stroke"/>
        <path d="M 660.99 770 L 666.49 766.76 L 671.99 770 L 666.49 773.24 Z" fill="#000000" stroke="#000000"
              stroke-miterlimit="10" pointer-events="all"/>
        <path d="M 671.99 725 L 660 725 L 880 725" fill="none" stroke="#000000" stroke-miterlimit="10"
              pointer-events="stroke"/>
        <path d="M 660.99 725 L 666.49 721.76 L 671.99 725 L 666.49 728.24 Z" fill="#000000" stroke="#000000"
              stroke-miterlimit="10" pointer-events="all"/>
        <rect x="720" y="622" width="100" height="22" fill="none" stroke="none" pointer-events="all"/>
        <g fill="#000000" font-family="Helvetica" clip-path="url(#mx-clip-724-627-92-22-0)" font-size="14px">
            <text x="725.5" y="641.5">is identified by</text>
        </g>
        <rect x="710" y="595" width="20" height="27" fill="none" stroke="none" pointer-events="all"/>
        <g fill="#000000" font-family="Helvetica" clip-path="url(#mx-clip-714-600-12-27-0)" font-size="14px">
            <text x="715.5" y="614.5">1</text>
        </g>
        <rect x="544" y="622" width="40" height="22" fill="none" stroke="none" pointer-events="all"/>
        <g fill="#000000" font-family="Helvetica" clip-path="url(#mx-clip-548-627-32-22-0)" font-size="14px">
            <text x="549.5" y="641.5">has</text>
        </g>
        <rect x="544" y="595" width="20" height="27" fill="none" stroke="none" pointer-events="all"/>
        <g fill="#000000" font-family="Helvetica" clip-path="url(#mx-clip-548-600-12-27-0)" font-size="14px">
            <text x="549.5" y="614.5">1</text>
        </g>
        <path d="M 786 166 L 830 166 L 877.76 166" fill="none" stroke="#000000" stroke-miterlimit="10"
              stroke-dasharray="3 3" pointer-events="stroke"/>
        <path d="M 867.88 171.5 L 878.88 166 L 867.88 160.5" fill="none" stroke="#000000" stroke-miterlimit="10"
              pointer-events="all"/>
        <path d="M 768 310 L 970 310 L 970 439.76" fill="none" stroke="#000000" stroke-miterlimit="10"
              stroke-dasharray="3 3" pointer-events="stroke"/>
        <path d="M 964.5 429.88 L 970 440.88 L 975.5 429.88" fill="none" stroke="#000000" stroke-miterlimit="10"
              pointer-events="all"/>
        <path d="M 604 318 L 604 338 L 604 330 L 604 347.76" fill="none" stroke="#000000" stroke-miterlimit="10"
              stroke-dasharray="3 3" pointer-events="stroke"/>
        <path d="M 598.5 337.88 L 604 348.88 L 609.5 337.88" fill="none" stroke="#000000" stroke-miterlimit="10"
              pointer-events="all"/>
        <rect x="1170" y="341" width="20" height="27" fill="none" stroke="none" pointer-events="all"/>
        <g fill="#000000" font-family="Helvetica" clip-path="url(#mx-clip-1174-346-12-27-0)" font-size="14px">
            <text x="1175.5" y="360.5">1</text>
        </g>
        <path d="M 1320 442 L 1320 270 L 1320 143.24" fill="none" stroke="#000000" stroke-miterlimit="10"
              stroke-dasharray="3 3" pointer-events="stroke"/>
        <path d="M 1325.5 153.12 L 1320 142.12 L 1314.5 153.12" fill="none" stroke="#000000" stroke-miterlimit="10"
              pointer-events="all"/>
        <path d="M 1190 442 L 1190 368 L 1162.24 368" fill="none" stroke="#000000" stroke-miterlimit="10"
              stroke-dasharray="3 3" pointer-events="stroke"/>
        <path d="M 1172.12 362.5 L 1161.12 368 L 1172.12 373.5" fill="none" stroke="#000000" stroke-miterlimit="10"
              pointer-events="all"/>
        <path d="M 1260 442 L 1260 340 L 1260 289.24" fill="none" stroke="#000000" stroke-miterlimit="10"
              stroke-dasharray="3 3" pointer-events="stroke"/>
        <path d="M 1265.5 299.12 L 1260 288.12 L 1254.5 299.12" fill="none" stroke="#000000" stroke-miterlimit="10"
              pointer-events="all"/>
        <rect x="1190" y="390" width="60" height="22" fill="none" stroke="none" pointer-events="all"/>
        <g fill="#000000" font-family="Helvetica" clip-path="url(#mx-clip-1194-395-52-22-0)" font-size="14px">
            <text x="1195.5" y="409.5">creates</text>
        </g>
        <rect x="700" y="700" width="120" height="22" fill="none" stroke="none" pointer-events="all"/>
        <g fill="#000000" font-family="Helvetica" clip-path="url(#mx-clip-704-705-112-22-0)" font-size="14px">
            <text x="705.5" y="719.5">has members list</text>
        </g>
        <rect x="850" y="700" width="20" height="27" fill="none" stroke="none" pointer-events="all"/>
        <g fill="#000000" font-family="Helvetica" clip-path="url(#mx-clip-854-705-12-27-0)" font-size="14px">
            <text x="855.5" y="719.5">1</text>
        </g>
        <rect x="700" y="740" width="120" height="22" fill="none" stroke="none" pointer-events="all"/>
        <g fill="#000000" font-family="Helvetica" clip-path="url(#mx-clip-704-745-112-22-0)" font-size="14px">
            <text x="705.5" y="759.5">has managers list</text>
        </g>
        <rect x="850" y="740" width="20" height="27" fill="none" stroke="none" pointer-events="all"/>
        <g fill="#000000" font-family="Helvetica" clip-path="url(#mx-clip-854-745-12-27-0)" font-size="14px">
            <text x="855.5" y="759.5">1</text>
        </g>
        <rect x="1120" y="684" width="40" height="22" fill="none" stroke="none" pointer-events="all"/>
        <g fill="#000000" font-family="Helvetica" clip-path="url(#mx-clip-1124-689-32-22-0)" font-size="14px">
            <text x="1125.5" y="703.5">has</text>
        </g>
        <rect x="1170" y="680" width="40" height="30" fill="none" stroke="none" pointer-events="all"/>
        <g fill="#000000" font-family="Helvetica" clip-path="url(#mx-clip-1174-685-32-30-0)" font-size="14px">
            <text x="1175.5" y="699.5">1..*</text>
        </g>
        <rect x="1120" y="737.5" width="40" height="22" fill="none" stroke="none" pointer-events="all"/>
        <g fill="#000000" font-family="Helvetica" clip-path="url(#mx-clip-1124-743-32-22-0)" font-size="14px">
            <text x="1125.5" y="757">has</text>
        </g>
        <rect x="1170" y="735" width="40" height="27" fill="none" stroke="none" pointer-events="all"/>
        <g fill="#000000" font-family="Helvetica" clip-path="url(#mx-clip-1174-740-32-27-0)" font-size="14px">
            <text x="1175.5" y="754.5">1..*</text>
        </g>
        <path d="M 1090 213 L 1090 130 L 1090 87.24" fill="none" stroke="#000000" stroke-miterlimit="10"
              stroke-dasharray="3 3" pointer-events="stroke"/>
        <path d="M 1095.5 97.12 L 1090 86.12 L 1084.5 97.12" fill="none" stroke="#000000" stroke-miterlimit="10"
              pointer-events="all"/>
        <path d="M 155 176 L 155 156 L 155 158 L 155 140.24" fill="none" stroke="#000000" stroke-miterlimit="10"
              stroke-dasharray="3 3" pointer-events="stroke"/>
        <path d="M 160.5 150.12 L 155 139.12 L 149.5 150.12" fill="none" stroke="#000000" stroke-miterlimit="10"
              pointer-events="all"/>
        <path d="M 300 35 L 440 35 L 446.88 35" fill="none" stroke="#000000" stroke-miterlimit="10"
              pointer-events="stroke"/>
        <path d="M 457.88 35 L 446.88 40.5 L 446.88 29.5 Z" fill="none" stroke="#000000" stroke-miterlimit="10"
              pointer-events="all"/>
        <path d="M 830 35 L 810 35 L 761.12 35" fill="none" stroke="#000000" stroke-miterlimit="10"
              pointer-events="stroke"/>
        <path d="M 750.12 35 L 761.12 29.5 L 761.12 40.5 Z" fill="none" stroke="#000000" stroke-miterlimit="10"
              pointer-events="all"/>
        <path d="M 160 328 L 160 340 L 160 367.26" fill="none" stroke="#000000" stroke-miterlimit="10"
              stroke-dasharray="3 3" pointer-events="stroke"/>
        <path d="M 154.5 357.38 L 160 368.38 L 165.5 357.38" fill="none" stroke="#000000" stroke-miterlimit="10"
              pointer-events="all"/>
        <path d="M 155 481.5 L 155 500 L 155 527.76" fill="none" stroke="#000000" stroke-miterlimit="10"
              stroke-dasharray="3 3" pointer-events="stroke"/>
        <path d="M 149.5 517.88 L 155 528.88 L 160.5 517.88" fill="none" stroke="#000000" stroke-miterlimit="10"
              pointer-events="all"/>
        <path d="M 424 200 L 340 200 L 340 367.26" fill="none" stroke="#000000" stroke-miterlimit="10"
              stroke-dasharray="3 3" pointer-events="stroke"/>
        <path d="M 334.5 357.38 L 340 368.38 L 345.5 357.38" fill="none" stroke="#000000" stroke-miterlimit="10"
              pointer-events="all"/>
        <path d="M 424 140 L 424 100 L 786 100 L 786 140" fill="#dae8fc" stroke="#6c8ebf" stroke-width="3"
              stroke-miterlimit="10" pointer-events="all"/>
        <path d="M 424 140 L 424 232 L 786 232 L 786 140" fill="none" stroke="#6c8ebf" stroke-width="3"
              stroke-miterlimit="10" pointer-events="none"/>
        <path d="M 424 140 L 786 140" fill="none" stroke="#6c8ebf" stroke-width="3" stroke-miterlimit="10"
              pointer-events="none"/>
        <g fill="#000000" font-family="Helvetica" font-weight="bold" text-anchor="middle" font-size="12px">
            <text x="604.5" y="117.5">&lt;Controller&gt;</text>
            <text x="604.5" y="131.5">AddMemberToGroupRESTController</text>
        </g>
        <path d="M 424 144 L 786 144" fill="none" stroke="#000000" stroke-miterlimit="10" pointer-events="none"/>
        <g fill="#000000" font-family="Helvetica" clip-path="url(#mx-clip-428-153-354-42-0)" font-size="12px">
            <text x="429.5" y="165.5">+ addMemberToGroup (infoDTO : AddMemberInfoDTO, </text>
            <text x="429.5" y="179.5">groupID : String) : ResponseEntity&lt;Object, HttpStatus&gt;</text>
        </g>
        <g fill="#000000" font-family="Helvetica" clip-path="url(#mx-clip-428-195-354-42-0)" font-size="12px">
            <text x="429.5" y="207.5">+ getMembersByGroupID(groupID : String) :</text>
            <text x="429.5" y="221.5">ResponseEntity&lt;Object, HttpStatus&gt;</text>
        </g>
        <path d="M 440 310 L 440 270 L 768 270 L 768 310" fill="#dae8fc" stroke="#6c8ebf" stroke-width="3"
              stroke-miterlimit="10" pointer-events="none"/>
        <path d="M 440 310 L 440 318 L 768 318 L 768 310" fill="none" stroke="#6c8ebf" stroke-width="3"
              stroke-miterlimit="10" pointer-events="none"/>
        <path d="M 440 310 L 768 310" fill="none" stroke="#6c8ebf" stroke-width="3" stroke-miterlimit="10"
              pointer-events="none"/>
        <g fill="#000000" font-family="Helvetica" font-weight="bold" text-anchor="middle" font-size="12px">
            <text x="603.5" y="287.5">&lt;Service&gt;</text>
            <text x="603.5" y="301.5">AddMemberService</text>
        </g>
        <path d="M 440 314 L 768 314" fill="none" stroke="#000000" stroke-miterlimit="10" pointer-events="none"/>
        <g fill="#000000" font-family="Helvetica" clip-path="url(#mx-clip-1274-292-12-27-0)" font-size="14px">
            <text x="1275.5" y="306.5">1</text>
        </g>
        <g fill="#000000" font-family="Helvetica" clip-path="url(#mx-clip-1264-373-52-22-0)" font-size="14px">
            <text x="1265.5" y="387.5">creates</text>
        </g>
        <g fill="#000000" font-family="Helvetica" clip-path="url(#mx-clip-1294-154-12-27-0)" font-size="14px">
            <text x="1295.5" y="168.5">1</text>
        </g>
        <g fill="#000000" font-family="Helvetica" clip-path="url(#mx-clip-1264-181-52-22-0)" font-size="14px">
            <text x="1265.5" y="195.5">creates</text>
        </g>
        <path d="M 459 51 L 459 11 L 749 11 L 749 51" fill="#dae8fc" stroke="#6c8ebf" stroke-width="3"
              stroke-miterlimit="10" pointer-events="none"/>
        <path d="M 459 51 L 459 59 L 749 59 L 749 51" fill="none" stroke="#6c8ebf" stroke-width="3"
              stroke-miterlimit="10" pointer-events="none"/>
        <path d="M 459 51 L 749 51" fill="none" stroke="#6c8ebf" stroke-width="3" stroke-miterlimit="10"
              pointer-events="none"/>
        <g fill="#000000" font-family="Helvetica" font-weight="bold" text-anchor="middle" font-size="12px">
            <text x="603.5" y="28.5">&lt;Interface&gt;</text>
            <text x="603.5" y="42.5">CrudRepository</text>
        </g>
        <path d="M 459 55 L 749 55" fill="none" stroke="#000000" stroke-miterlimit="10" pointer-events="none"/>
        <path d="M 880 160 L 880 120 L 1010 120 L 1010 160" fill="#dae8fc" stroke="#6c8ebf" stroke-width="3"
              stroke-miterlimit="10" pointer-events="none"/>
        <path d="M 880 160 L 880 190 L 1010 190 L 1010 160" fill="none" stroke="#6c8ebf" stroke-width="3"
              stroke-miterlimit="10" pointer-events="none"/>
        <path d="M 880 160 L 1010 160" fill="none" stroke="#6c8ebf" stroke-width="3" stroke-miterlimit="10"
              pointer-events="none"/>
        <g fill="#000000" font-family="Helvetica" font-weight="bold" text-anchor="middle" font-size="12px">
            <text x="944.5" y="137.5">&lt;DTO&gt;</text>
            <text x="944.5" y="151.5">AddMemberInfoDTO</text>
        </g>
        <g fill="#000000" font-family="Helvetica" clip-path="url(#mx-clip-884-165-122-30-0)" font-size="12px">
            <text x="885.5" y="177.5">- personID: String</text>
        </g>
        <path d="M 434 390 L 434 350 L 774 350 L 774 390" fill="#dae8fc" stroke="#6c8ebf" stroke-width="3"
              stroke-miterlimit="10" pointer-events="none"/>
        <path d="M 434 390 L 434 470 L 774 470 L 774 390" fill="none" stroke="#6c8ebf" stroke-width="3"
              stroke-miterlimit="10" pointer-events="none"/>
        <path d="M 434 390 L 774 390" fill="none" stroke="#6c8ebf" stroke-width="3" stroke-miterlimit="10"
              pointer-events="none"/>
        <g fill="#000000" font-family="Helvetica" font-weight="bold" text-anchor="middle" font-size="12px">
            <text x="603.5" y="367.5">&lt;Interface&gt;</text>
            <text x="603.5" y="381.5">IUS003_Service</text>
        </g>
        <path d="M 434 394 L 774 394" fill="none" stroke="#000000" stroke-miterlimit="10" pointer-events="none"/>
        <g fill="#000000" font-family="Helvetica" clip-path="url(#mx-clip-438-403-332-42-0)" font-size="12px">
            <text x="439.5" y="415.5">+ addMemberJpa (requestDTO : AddMemberRequestDTO)</text>
            <text x="439.5" y="429.5"> : AddMemberResponseDTO</text>
        </g>
        <g fill="#000000" font-family="Helvetica" clip-path="url(#mx-clip-438-445-332-30-0)" font-size="12px">
            <text x="439.5" y="457.5">+ getMembersByGroupIDJpa(groupID: String): MembersDTO</text>
        </g>
        <path d="M 10 570 L 10 530 L 300 530 L 300 570" fill="#dae8fc" stroke="#6c8ebf" stroke-width="3"
              stroke-miterlimit="10" pointer-events="none"/>
        <path d="M 10 570 L 10 790 L 300 790 L 300 570" fill="none" stroke="#6c8ebf" stroke-width="3"
              stroke-miterlimit="10" pointer-events="none"/>
        <path d="M 10 570 L 300 570" fill="none" stroke="#6c8ebf" stroke-width="3" stroke-miterlimit="10"
              pointer-events="none"/>
        <g fill="#000000" font-family="Helvetica" font-weight="bold" text-anchor="middle" font-size="12px">
            <text x="154.5" y="547.5">&lt;V.O&gt;</text>
            <text x="154.5" y="561.5">GroupJpa</text>
        </g>
        <path d="M 10 575 L 300 575" fill="none" stroke="#000000" stroke-miterlimit="10" pointer-events="none"/>
        <g fill="#000000" font-family="Helvetica" clip-path="url(#mx-clip-14-585-282-30-0)" font-size="12px">
            <text x="15.5" y="597.5">- description: Description</text>
        </g>
        <g fill="#000000" font-family="Helvetica" clip-path="url(#mx-clip-14-615-282-30-0)" font-size="12px">
            <text x="15.5" y="627.5">- creationDate: CreationDate</text>
        </g>
        <g fill="#000000" font-family="Helvetica" clip-path="url(#mx-clip-14-645-282-30-0)" font-size="12px">
            <text x="15.5" y="657.5">- ledgerID: LedgerID</text>
        </g>
        <g fill="#000000" font-family="Helvetica" clip-path="url(#mx-clip-14-675-282-30-0)" font-size="12px">
            <text x="15.5" y="687.5">- accountsIds: List&lt;AccountID&gt;</text>
        </g>
        <g fill="#000000" font-family="Helvetica" clip-path="url(#mx-clip-14-705-282-30-0)" font-size="12px">
            <text x="15.5" y="717.5">- categories: List&lt;Category&gt;</text>
        </g>
        <g fill="#000000" font-family="Helvetica" clip-path="url(#mx-clip-14-735-282-30-0)" font-size="12px">
            <text x="15.5" y="747.5">- members: List&lt;PersonID&gt;</text>
        </g>
        <g fill="#000000" font-family="Helvetica" clip-path="url(#mx-clip-14-765-282-30-0)" font-size="12px">
            <text x="15.5" y="777.5">- managers: List&lt;PersonID&gt;</text>
        </g>
        <path d="M 880 730 L 880 690 L 1090 690 L 1090 730" fill="#dae8fc" stroke="#6c8ebf" stroke-width="3"
              stroke-miterlimit="10" pointer-events="none"/>
        <path d="M 880 730 L 880 790 L 1090 790 L 1090 730" fill="none" stroke="#6c8ebf" stroke-width="3"
              stroke-miterlimit="10" pointer-events="none"/>
        <path d="M 880 730 L 1090 730" fill="none" stroke="#6c8ebf" stroke-width="3" stroke-miterlimit="10"
              pointer-events="none"/>
        <g fill="#000000" font-family="Helvetica" font-weight="bold" text-anchor="middle" font-size="12px">
            <text x="984.5" y="707.5">&lt;VO&gt;</text>
            <text x="984.5" y="721.5">PersonsIDs</text>
        </g>
        <g fill="#000000" font-family="Helvetica" clip-path="url(#mx-clip-884-735-202-30-0)" font-size="12px">
            <text x="885.5" y="747.5">- personIDs : Set&lt;PersonID&gt;</text>
        </g>
        <g fill="#000000" font-family="Helvetica" clip-path="url(#mx-clip-884-765-202-30-0)" font-size="12px">
            <text x="885.5" y="777.5">+ getPersonIDs ( ) :  Set&lt;PersonID&gt;</text>
        </g>
        <path d="M 380 700 L 380 660 L 660 660 L 660 700" fill="#dae8fc" stroke="#6c8ebf" stroke-width="3"
              stroke-miterlimit="10" pointer-events="none"/>
        <path d="M 380 700 L 380 790 L 660 790 L 660 700" fill="none" stroke="#6c8ebf" stroke-width="3"
              stroke-miterlimit="10" pointer-events="none"/>
        <path d="M 380 700 L 660 700" fill="none" stroke="#6c8ebf" stroke-width="3" stroke-miterlimit="10"
              pointer-events="none"/>
        <g fill="#000000" font-family="Helvetica" font-weight="bold" text-anchor="middle" font-size="12px">
            <text x="519.5" y="677.5">&lt;AggregateRoot&gt;</text>
            <text x="519.5" y="691.5">Group</text>
        </g>
        <g fill="#000000" font-family="Helvetica" clip-path="url(#mx-clip-384-705-272-30-0)" font-size="12px">
            <text x="385.5" y="717.5">+ addMember(personID : PersonID) : Boolean</text>
        </g>
        <g fill="#000000" font-family="Helvetica" clip-path="url(#mx-clip-384-735-272-30-0)" font-size="12px">
            <text x="385.5" y="747.5">+ getMembers( ) : PersonIDs</text>
        </g>
        <g fill="#000000" font-family="Helvetica" clip-path="url(#mx-clip-384-765-272-30-0)" font-size="12px">
            <text x="385.5" y="777.5">+ hasManagerID (personID : PersonID) : Boolean</text>
        </g>
        <path d="M 650 566 L 650 526 L 770 526 L 770 566" fill="#dae8fc" stroke="#6c8ebf" stroke-width="3"
              stroke-miterlimit="10" pointer-events="none"/>
        <path d="M 650 566 L 650 596 L 770 596 L 770 566" fill="none" stroke="#6c8ebf" stroke-width="3"
              stroke-miterlimit="10" pointer-events="none"/>
        <path d="M 650 566 L 770 566" fill="none" stroke="#6c8ebf" stroke-width="3" stroke-miterlimit="10"
              pointer-events="none"/>
        <g fill="#000000" font-family="Helvetica" font-weight="bold" text-anchor="middle" font-size="12px">
            <text x="709.5" y="543.5">&lt;VO&gt;</text>
            <text x="709.5" y="557.5">GroupID</text>
        </g>
        <g fill="#000000" font-family="Helvetica" clip-path="url(#mx-clip-654-571-112-30-0)" font-size="12px">
            <text x="655.5" y="583.5">- groupID : Long</text>
        </g>
        <path d="M 10 216 L 10 176 L 300 176 L 300 216" fill="#dae8fc" stroke="#6c8ebf" stroke-width="3"
              stroke-miterlimit="10" pointer-events="none"/>
        <path d="M 10 216 L 10 328 L 300 328 L 300 216" fill="none" stroke="#6c8ebf" stroke-width="3"
              stroke-miterlimit="10" pointer-events="none"/>
        <path d="M 10 216 L 300 216" fill="none" stroke="#6c8ebf" stroke-width="3" stroke-miterlimit="10"
              pointer-events="none"/>
        <g fill="#000000" font-family="Helvetica" font-weight="bold" text-anchor="middle" font-size="12px">
            <text x="154.5" y="193.5">&lt;Repository&gt;</text>
            <text x="154.5" y="207.5">GroupRepository</text>
        </g>
        <g fill="#000000" font-family="Helvetica" clip-path="url(#mx-clip-14-221-282-26-0)" font-size="12px">
            <text x="15.5" y="233.5">- groups : Set&lt;Group&gt;</text>
        </g>
        <path d="M 10 246 L 300 246" fill="none" stroke="#000000" stroke-miterlimit="10" pointer-events="none"/>
        <g fill="#000000" font-family="Helvetica" clip-path="url(#mx-clip-14-255-282-26-0)" font-size="12px">
            <text x="15.5" y="267.5">+ existsByID (groupID : GroupID) : Boolean</text>
        </g>
        <g fill="#000000" font-family="Helvetica" clip-path="url(#mx-clip-14-281-282-26-0)" font-size="12px">
            <text x="15.5" y="293.5">+ findByID (groupID : GroupID): Group</text>
        </g>
        <g fill="#000000" font-family="Helvetica" clip-path="url(#mx-clip-14-307-282-26-0)" font-size="12px">
            <text x="15.5" y="319.5">+ save (group : Group) : Group</text>
        </g>
        <path d="M 10 52 L 10 12 L 300 12 L 300 52" fill="#dae8fc" stroke="#6c8ebf" stroke-width="3"
              stroke-miterlimit="10" pointer-events="none"/>
        <path d="M 10 52 L 10 138 L 300 138 L 300 52" fill="none" stroke="#6c8ebf" stroke-width="3"
              stroke-miterlimit="10" pointer-events="none"/>
        <path d="M 10 52 L 300 52" fill="none" stroke="#6c8ebf" stroke-width="3" stroke-miterlimit="10"
              pointer-events="none"/>
        <g fill="#000000" font-family="Helvetica" font-weight="bold" text-anchor="middle" font-size="12px">
            <text x="154.5" y="29.5">&lt;Interface&gt;</text>
            <text x="154.5" y="43.5">GroupJpaRepository</text>
        </g>
        <path d="M 10 56 L 300 56" fill="none" stroke="#000000" stroke-miterlimit="10" pointer-events="none"/>
        <g fill="#000000" font-family="Helvetica" clip-path="url(#mx-clip-14-65-282-26-0)" font-size="12px">
            <text x="15.5" y="77.5">+ existsByID (groupID : GroupID) : Boolean</text>
        </g>
        <g fill="#000000" font-family="Helvetica" clip-path="url(#mx-clip-14-91-282-26-0)" font-size="12px">
            <text x="15.5" y="103.5">+ findById (id: GroupID) : Optional &lt;GroupJpa&gt;</text>
        </g>
        <g fill="#000000" font-family="Helvetica" clip-path="url(#mx-clip-14-117-282-26-0)" font-size="12px">
            <text x="15.5" y="129.5">+ save (groupJpa : GroupJpa) : GroupJpa</text>
        </g>
        <path d="M 480 566 L 480 526 L 600 526 L 600 566" fill="#dae8fc" stroke="#6c8ebf" stroke-width="3"
              stroke-miterlimit="10" pointer-events="none"/>
        <path d="M 480 566 L 480 596 L 600 596 L 600 566" fill="none" stroke="#6c8ebf" stroke-width="3"
              stroke-miterlimit="10" pointer-events="none"/>
        <path d="M 480 566 L 600 566" fill="none" stroke="#6c8ebf" stroke-width="3" stroke-miterlimit="10"
              pointer-events="none"/>
        <g fill="#000000" font-family="Helvetica" font-weight="bold" text-anchor="middle" font-size="12px">
            <text x="539.5" y="543.5">&lt;VO&gt;</text>
            <text x="539.5" y="557.5">LedgerID</text>
        </g>
        <g fill="#000000" font-family="Helvetica" clip-path="url(#mx-clip-484-571-112-30-0)" font-size="12px">
            <text x="485.5" y="583.5">- ledgerID : Long</text>
        </g>
        <path d="M 10 409.5 L 10 369.5 L 368 369.5 L 368 409.5" fill="#dae8fc" stroke="#6c8ebf" stroke-width="3"
              stroke-miterlimit="10" pointer-events="none"/>
        <path d="M 10 409.5 L 10 481.5 L 368 481.5 L 368 409.5" fill="none" stroke="#6c8ebf" stroke-width="3"
              stroke-miterlimit="10" pointer-events="none"/>
        <path d="M 10 409.5 L 368 409.5" fill="none" stroke="#6c8ebf" stroke-width="3" stroke-miterlimit="10"
              pointer-events="none"/>
        <g fill="#000000" font-family="Helvetica" font-weight="bold" text-anchor="middle" font-size="12px">
            <text x="188.5" y="387">&lt;Assembler&gt;</text>
            <text x="188.5" y="401">GroupDomainDataAssembler</text>
        </g>
        <path d="M 10 413.5 L 368 413.5" fill="none" stroke="#000000" stroke-miterlimit="10" pointer-events="none"/>
        <g fill="#000000" font-family="Helvetica" clip-path="url(#mx-clip-14-423-350-32-0)" font-size="12px">
            <text x="15.5" y="435">+ toData  (group : Group) : GroupJpa</text>
        </g>
        <g fill="#000000" font-family="Helvetica" clip-path="url(#mx-clip-14-455-350-32-0)" font-size="12px">
            <text x="15.5" y="467">+ toDomain  (groupJpa: GroupJpa) : Group</text>
        </g>
        <path d="M 832 390.5 L 832 350.5 L 942 350.5 L 942 390.5" fill="#dae8fc" stroke="#6c8ebf" stroke-width="3"
              stroke-miterlimit="10" pointer-events="none"/>
        <path d="M 832 390.5 L 832 398.5 L 942 398.5 L 942 390.5" fill="none" stroke="#6c8ebf" stroke-width="3"
              stroke-miterlimit="10" pointer-events="none"/>
        <path d="M 832 390.5 L 942 390.5" fill="none" stroke="#6c8ebf" stroke-width="3" stroke-miterlimit="10"
              pointer-events="none"/>
        <g fill="#000000" font-family="Helvetica" font-weight="bold" text-anchor="middle" font-size="12px">
            <text x="886.5" y="368">&lt;Interface&gt;</text>
            <text x="886.5" y="382">Repository</text>
        </g>
        <path d="M 832 394.5 L 942 394.5" fill="none" stroke="#000000" stroke-miterlimit="10" pointer-events="none"/>
        <path d="M 832 482 L 832 442 L 1330 442 L 1330 482" fill="#dae8fc" stroke="#6c8ebf" stroke-width="3"
              stroke-miterlimit="10" pointer-events="none"/>
        <path d="M 832 482 L 832 582 L 1330 582 L 1330 482" fill="none" stroke="#6c8ebf" stroke-width="3"
              stroke-miterlimit="10" pointer-events="none"/>
        <path d="M 832 482 L 1330 482" fill="none" stroke="#6c8ebf" stroke-width="3" stroke-miterlimit="10"
              pointer-events="none"/>
        <g fill="#000000" font-family="Helvetica" font-weight="bold" text-anchor="middle" font-size="12px">
            <text x="1080.5" y="459.5">&lt;Assembler&gt;</text>
            <text x="1080.5" y="473.5">AddMemberAssembler</text>
        </g>
        <path d="M 832 486 L 1330 486" fill="none" stroke="#000000" stroke-miterlimit="10" pointer-events="none"/>
        <g fill="#000000" font-family="Helvetica" clip-path="url(#mx-clip-836-495-490-22-0)" font-size="12px">
            <text x="837.5" y="507.5">+ maptoRequestDTO (newMemberID : String, groupID : String) : AddMemberRequestDTO
            </text>
        </g>
        <g fill="#000000" font-family="Helvetica" clip-path="url(#mx-clip-836-517-490-42-0)" font-size="12px">
            <text x="837.5" y="529.5">+ maptoResponseDTO (groupID : String, groupDescription : String, newMemberID:
                String)
            </text>
            <text x="837.5" y="543.5"> : AddMemberResponseDTO</text>
        </g>
        <g fill="#000000" font-family="Helvetica" clip-path="url(#mx-clip-836-559-490-28-0)" font-size="12px">
            <text x="837.5" y="571.5">+ maptoResponseDTO (group: Group) : MembersDTO</text>
        </g>
        <path d="M 832 253 L 832 213 L 1122 213 L 1122 253" fill="#dae8fc" stroke="#6c8ebf" stroke-width="3"
              stroke-miterlimit="10" pointer-events="none"/>
        <path d="M 832 253 L 832 287 L 1122 287 L 1122 253" fill="none" stroke="#6c8ebf" stroke-width="3"
              stroke-miterlimit="10" pointer-events="none"/>
        <path d="M 832 253 L 1122 253" fill="none" stroke="#6c8ebf" stroke-width="3" stroke-miterlimit="10"
              pointer-events="none"/>
        <g fill="#000000" font-family="Helvetica" font-weight="bold" text-anchor="middle" font-size="12px">
            <text x="976.5" y="230.5">&lt;Repository&gt;</text>
            <text x="976.5" y="244.5">PersonRepository</text>
        </g>
        <path d="M 832 257 L 1122 257" fill="none" stroke="#000000" stroke-miterlimit="10" pointer-events="none"/>
        <g fill="#000000" font-family="Helvetica" clip-path="url(#mx-clip-836-266-282-26-0)" font-size="12px">
            <text x="837.5" y="278.5">+ existsByID (personID : PersonID) : Boolean</text>
        </g>
        <path d="M 830 51 L 830 11 L 1120 11 L 1120 51" fill="#dae8fc" stroke="#6c8ebf" stroke-width="3"
              stroke-miterlimit="10" pointer-events="none"/>
        <path d="M 830 51 L 830 85 L 1120 85 L 1120 51" fill="none" stroke="#6c8ebf" stroke-width="3"
              stroke-miterlimit="10" pointer-events="none"/>
        <path d="M 830 51 L 1120 51" fill="none" stroke="#6c8ebf" stroke-width="3" stroke-miterlimit="10"
              pointer-events="none"/>
        <g fill="#000000" font-family="Helvetica" font-weight="bold" text-anchor="middle" font-size="12px">
            <text x="974.5" y="28.5">&lt;Interface&gt;</text>
            <text x="974.5" y="42.5">PersonJpaRepository</text>
        </g>
        <path d="M 830 55 L 1120 55" fill="none" stroke="#000000" stroke-miterlimit="10" pointer-events="none"/>
        <g fill="#000000" font-family="Helvetica" clip-path="url(#mx-clip-834-64-282-26-0)" font-size="12px">
            <text x="835.5" y="76.5">+ existsByID (groupID : GroupID) : Boolean</text>
        </g>
        <path d="M 1010 358 L 1010 318 L 1160 318 L 1160 358" fill="#dae8fc" stroke="#6c8ebf" stroke-width="3"
              stroke-miterlimit="10" pointer-events="none"/>
        <path d="M 1010 358 L 1010 418 L 1160 418 L 1160 358" fill="none" stroke="#6c8ebf" stroke-width="3"
              stroke-miterlimit="10" pointer-events="none"/>
        <path d="M 1010 358 L 1160 358" fill="none" stroke="#6c8ebf" stroke-width="3" stroke-miterlimit="10"
              pointer-events="none"/>
        <g fill="#000000" font-family="Helvetica" font-weight="bold" text-anchor="middle" font-size="12px">
            <text x="1084.5" y="335.5">&lt;DTO&gt;</text>
            <text x="1084.5" y="349.5">AddMemberRequestDTO</text>
        </g>
        <g fill="#000000" font-family="Helvetica" clip-path="url(#mx-clip-1014-363-142-30-0)" font-size="12px">
            <text x="1015.5" y="375.5">- newMemberID: String</text>
        </g>
        <g fill="#000000" font-family="Helvetica" clip-path="url(#mx-clip-1014-393-142-30-0)" font-size="12px">
            <text x="1015.5" y="405.5">- groupID: String</text>
        </g>
        <path d="M 1150 51 L 1150 11 L 1320 11 L 1320 51" fill="#dae8fc" stroke="#6c8ebf" stroke-width="3"
              stroke-miterlimit="10" pointer-events="none"/>
        <path d="M 1150 51 L 1150 141 L 1320 141 L 1320 51" fill="none" stroke="#6c8ebf" stroke-width="3"
              stroke-miterlimit="10" pointer-events="none"/>
        <path d="M 1150 51 L 1320 51" fill="none" stroke="#6c8ebf" stroke-width="3" stroke-miterlimit="10"
              pointer-events="none"/>
        <g fill="#000000" font-family="Helvetica" font-weight="bold" text-anchor="middle" font-size="12px">
            <text x="1234.5" y="28.5">&lt;DTO&gt;</text>
            <text x="1234.5" y="42.5">AddMemberResponseDTO</text>
        </g>
        <g fill="#000000" font-family="Helvetica" clip-path="url(#mx-clip-1154-56-162-30-0)" font-size="12px">
            <text x="1155.5" y="68.5">- newMemberID: String</text>
        </g>
        <g fill="#000000" font-family="Helvetica" clip-path="url(#mx-clip-1154-86-162-30-0)" font-size="12px">
            <text x="1155.5" y="98.5">- groupID: String</text>
        </g>
        <g fill="#000000" font-family="Helvetica" clip-path="url(#mx-clip-1154-116-162-30-0)" font-size="12px">
            <text x="1155.5" y="128.5">- groupDescription: String</text>
        </g>
        <path d="M 1140 257 L 1140 217 L 1300 217 L 1300 257" fill="#dae8fc" stroke="#6c8ebf" stroke-width="3"
              stroke-miterlimit="10" pointer-events="none"/>
        <path d="M 1140 257 L 1140 287 L 1300 287 L 1300 257" fill="none" stroke="#6c8ebf" stroke-width="3"
              stroke-miterlimit="10" pointer-events="none"/>
        <path d="M 1140 257 L 1300 257" fill="none" stroke="#6c8ebf" stroke-width="3" stroke-miterlimit="10"
              pointer-events="none"/>
        <g fill="#000000" font-family="Helvetica" font-weight="bold" text-anchor="middle" font-size="12px">
            <text x="1219.5" y="234.5">&lt;VO&gt;</text>
            <text x="1219.5" y="248.5">MembersDTO</text>
        </g>
        <g fill="#000000" font-family="Helvetica" clip-path="url(#mx-clip-1144-262-152-30-0)" font-size="12px">
            <text x="1145.5" y="274.5">- membersIDs : Set&lt;String&gt;</text>
        </g>
        <path d="M 1210 740 L 1210 700 L 1330 700 L 1330 740" fill="#dae8fc" stroke="#6c8ebf" stroke-width="3"
              stroke-miterlimit="10" pointer-events="none"/>
        <path d="M 1210 740 L 1210 770 L 1330 770 L 1330 740" fill="none" stroke="#6c8ebf" stroke-width="3"
              stroke-miterlimit="10" pointer-events="none"/>
        <path d="M 1210 740 L 1330 740" fill="none" stroke="#6c8ebf" stroke-width="3" stroke-miterlimit="10"
              pointer-events="none"/>
        <g fill="#000000" font-family="Helvetica" font-weight="bold" text-anchor="middle" font-size="12px">
            <text x="1269.5" y="717.5">&lt;VO&gt;</text>
            <text x="1269.5" y="731.5">PersonID</text>
        </g>
        <g fill="#000000" font-family="Helvetica" clip-path="url(#mx-clip-1214-745-112-30-0)" font-size="12px">
            <text x="1215.5" y="757.5">- personID : Long</text>
        </g>
        <g fill="#000000" font-family="Helvetica" clip-path="url(#mx-clip-394-575-42-22-0)" font-size="14px">
            <text x="395.5" y="589.5">stores</text>
        </g>
        <g fill="#000000" font-family="Helvetica" clip-path="url(#mx-clip-394-625-12-27-0)" font-size="14px">
            <text x="395.5" y="639">*</text>
        </g>
    </g>
</svg>