@startuml
skinparam defaultFontSize 16

skinparam sequence {
   ArrowColor blue
   LifeLineBorderColor blue
   ParticipantBorderColor blue
   ParticipantBackgroundColor transparent
   ParticipantFontSize 16
   ActorFontColor blue
   ActorFontSize 15
   ActorFontName blue }
hide footbox

title **US008.1 - Como membro de grupo, quero criar um movimento de grupo, atribuindo-lhe um valor, a data (atual, por omissão), uma descrição, uma categoria, uma conta de crédito e outra de débito.**\n

autonumber

participant "HTTPClient" as http
participant "SpringBoot" as spring
participant "infoDTO:\nCreateTransactionInfoDTO" as infoDTO
participant  ": CreateTransactionForGroupRESTController" as controller
participant "CreateTransactionForGroupAssembler" as Assembler
participant "responseEntity\n:ResponseEntity" as responseE
'participant "requestDTO: \nCreateTransactionForGroupRequestDTO" as requestDTO
participant  ": CreateTransactionForGroupService" as service


http -> spring : HTTP Request (method : POST, \n URI : "/people/{personID}/groups/{groupID}/transactions", \n RequestBody : {"amount": "amount", \n "dateTime": "dateTime", "type": "type",\n "description":"description"\n, "categoryDesignation":"designation",\n "debitAccountID":"debitAccountID",\n "creditAccountID":"creditAccountID"})
activate spring

spring -> spring : deserialize (RequestBody)
activate spring
spring -> infoDTO* :create (amount,\n dateTime, type,\n description,\n categoryDesignation,\n debitAccountID,\n creditAccountID)
deactivate spring

spring -> controller : createAccountForGroup (personID, groupID, infoDTO)
activate controller
'note over requestDTO: requestDTO(personID : String, groupID : String, amount : String, dateTime : String, type : String,\n description : String, categoryDesignation : String, debitAccountID : String, creditAccountID : String)
controller -> Assembler : mapToRequestDTO\n (personID, groupID, infoDTO)

activate Assembler
ref over Assembler: createRequestDTO
'Assembler -> requestDTO * : create\n(personID, groupID, infoDTO.getAmount(),\n infoDTO.getDateTime(), infoDTO.getType(),\n infoDTO.getDescription(),\n infoDTO.getCategoryDesignation(),\n infoDTO.getDebitAccountID(),\n infoDTO.getCreditAccountID()))
Assembler --> controller : requestDTO
deactivate Assembler
controller -> service : createTransactionForGroup (requestDTO)
activate service

ref over service: createTransactionForGroup

controller <-- service : responseDTO
deactivate service

note over Assembler: Hypermedia link to consult all group's transactions \n is created and added to the responseDTO before\n the ResponseEntity's creation

controller -> responseE *: (responseDTO, HTTPStatus.CREATED)

controller --> spring : responseEntity
deactivate controller

spring -> spring : serialize (responseDTO)

spring --> http : HTTP Response \n(ResponseBody, ResponseStatus)
deactivate spring

@enduml