@startuml

skinparam class {
	ArrowColor blue
	BorderColor RosyBrown
	BackgroundColor lightyellow
}

skinparam {
    packageStyle rect
    defaultFontName FG Virgil
    linetype ortho
    ArrowColor blue
    defaultFontSize 16
    LifeLineBorderColor blue
    ParticipantBorderColor blue
    ParticipantBackgroundColor transparent
    ActorFontColor blue
    }

title **US002.1 - As a user, I want to create a group, making myself the manager of the group - Class Diagram**\n

Class CreateGroupRESTController << Controller >> {
+createGroup (groupID : String, description : String,\n creationDate : String, creatorID : String, \n groupLedgerID : String) : Optional<CreateGroupDTO>
}

Interface IUS002_1_Service <<Interface>> {
createGroup (requestDTO :\n CreateGroupRequestDTO)\n : Optional <CreateGroupDTO>
}

Class CreateGroupService << Service >>
Class CreateGroupService implements IUS002_1_Service{
}

Class CreateGroupAssembler <<Assembler>> {
+mapToDTO (group : Group) : CreateGroupDTO
+mapToRequestDTO (groupID : String,\n description : String, creationDate : String,\n creatorID : String, groupLedgerID : String)
-convertPersonsIDs (personsIDs : PersonsIDs) \n:Set<String>
}

Class CreateGroupDTO <<DTO>> {
-members : Set<String>
-managers : Set<String>
-groupID : String
-description : String
-creationDate : String
-groupLedgerID : String

}

Class CreateGroupRequestDTO <<DTO>> {
-groupIID : String
-description : String
-creationDate : String
-creatorID : String
-groupLedgerID : String

}

Class CreateGroupInfoDTO <<DTO>> {
-groupIID : String
-description : String
-creationDate : String
-creatorID : String
-groupLedgerID : String

}

Class PersonRepository <<Repository>>
Class PersonRepository implements Repository {
}

Class GroupRepository <<Repository>>
Class GroupRepository implements Repository {
}

Class LedgerRepository <<Repository>>
Class LedgerRepository implements Repository {
}

Interface Repository <<Interface>> {
-list : Set<Entity>
+findAll ( ) : Iterable<Entity>
+add (entity : Entity) : boolean
+findByID (entityID : EntityID) : Optional<Entity>
+contains (entity : Entity) : boolean
+containsByID (entityID : EntityID) : boolean
}


Class Person << Aggregate Root >> {
}

Class Group << Aggregate Root >> {
-description : Description
-creationDate : CreationDate
}

Class Ledger << Aggregate Root >> {
}

Class PersonID <<VO>> {
-personID : Long
}

Class GroupID <<VO>> {
-groupID : Long
}

Class LedgerID <<VO>> {
-ledgerID : Long
}

Class PersonsIDs <<VO>> {
-personsIDs : Set<PersonID>
}

CreateGroupRESTController .right.> "1" CreateGroupService : uses
CreateGroupRESTController ..> CreateGroupInfoDTO : uses
CreateGroupService ..> CreateGroupAssembler : uses
CreateGroupAssembler ..> CreateGroupDTO : uses
CreateGroupAssembler ..> CreateGroupRequestDTO : uses
CreateGroupService .right.> "1" PersonRepository : uses
CreateGroupService .right.> "1" GroupRepository : uses
CreateGroupService .right.> "1" LedgerRepository : uses
PersonRepository --> "*" Person : stores
Person --> "1" PersonID : is identified by
PersonsIDs --> "*" PersonID : stores
GroupRepository --> "*" Group : stores
Group --> "1" GroupID : is identified by
Group --> "1" LedgerID : references
Group --> "1" PersonsIDs : has list of members
Group --> "1" PersonsIDs : has list of managers
LedgerRepository --> "*" Ledger : "             stores"
Ledger --> "1" LedgerID : is identified by

@enduml