@startuml

skinparam defaultFontSize 16

skinparam sequence {
   ArrowColor blue
   LifeLineBorderColor blue
   ParticipantBorderColor blue
   ParticipantBackgroundColor transparent
   ParticipantFontSize 16
   ActorFontColor blue
   ActorFontSize 15
   ActorFontName blue }
hide footbox

autonumber "4-8-"

participant ":GroupRepository" as groupRepo
participant ":GroupJPARepository" as groupjparepo

group SD existsByID
-> groupRepo : exists = existsByID (groupID)
groupRepo -> groupjparepo : exists = existsByID (groupID)

end

@enduml