@startuml
skinparam defaultFontSize 16

skinparam sequence {
   ArrowColor blue
   LifeLineBorderColor blue
   ParticipantBorderColor blue
   ParticipantBackgroundColor transparent
   ParticipantFontSize 16
   ActorFontColor blue
   ActorFontSize 15
   ActorFontName blue }
hide footbox

title **US007 - Como responsável do grupo, quero criar uma conta do grupo, atribuindo-lhe uma denominação e uma descrição, para posteriormente poder ser usada nos movimentos do grupo.**\n

autonumber

participant "HTTPClient" as http
participant "SpringBoot" as spring
participant "infoDTO:\nCreateAccountForGroupInfoDTO" as infoDTO
participant  ": CreateAccountForGroupRESTController" as controller
participant "CreateAccountForGroupAssembler" as Assembler
participant "responseEntity\n:ResponseEntity" as responseE
participant "requestDTO: \nCreateAccountForGroupRequestDTO" as requestDTO
participant  ": CreateAccountForGroupService" as service


http -> spring : HTTP Request (method : POST, \n URI : "/people/{personID}/groups/{groupID}/accounts", \n RequestBody : {"accountID": "accountID", \n "description": "description",\n "denomination": "denomination"})
activate spring

spring -> spring : deserialize (RequestBody)
activate spring
spring -> infoDTO* :create (accountID,\n description,\n denomination)
deactivate spring

spring -> controller : createAccountForGroup (infoDTO, personID, groupID)
activate controller
note over requestDTO: requestDTO(accountID: String, groupID: String,\n accountDenomination:String, accountDescription: String)
controller -> Assembler : mapToRequestDTO (\n infoDTO.getAccountID,\n groupID, \n infoDTO.getAccountDenomination,\n infoDTO.getAccountDescription,\n personID)


activate Assembler
Assembler -> requestDTO * : create\n(accountID, groupID, \n accountDenomination, \n accountDescription,\n personID)
Assembler --> controller : requestDTO
deactivate Assembler
controller -> service : createAccountForGroup (requestDTO)
activate service

ref over service: createAccountForGroup

controller <-- service : responseDTO
deactivate service

ref over controller: createAndAddLinks

controller -> responseE *: (responseDTO, HTTPStatus.CREATED)

controller --> spring : responseEntity
deactivate controller

spring -> spring : serialize (responseDTO)

spring --> http : HTTP Response \n(ResponseBody, ResponseStatus)
deactivate spring

@enduml