@startuml
skinparam defaultFontSize 16

skinparam sequence {
   ArrowColor blue
   LifeLineBorderColor blue
   ParticipantBorderColor blue
   ParticipantBackgroundColor transparent
   ParticipantFontSize 16
   ActorFontColor blue
   ActorFontSize 15
   ActorFontName blue }
hide footbox

title **US4 - As a system manager, I want to know which groups are family - Sequence Diagram** \n

autonumber

participant "HTTPClient" as http
participant "SpringBoot" as spring

participant  ":GetFamilyGroupsRESTController" as controller

http -> spring : GET ("/groups/family")


spring -> controller : getFamilyGroups

ref over controller: getFamilyGroups

controller --> spring : ResponseEntity \n (GetFamilyGroupsDTO, \n HttpStatus.OK)
spring --> http : ResponseEntity \n(GetFamilyGroupsDTO, \n HttpStatus.OK)





@enduml