@startuml
skinparam defaultFontSize 16

skinparam sequence {
   ArrowColor blue
   LifeLineBorderColor blue
   ParticipantBorderColor blue
   ParticipantBackgroundColor transparent
   ParticipantFontSize 16
   ActorFontColor blue
   ActorFontSize 15
   ActorFontName blue }
hide footbox

autonumber "7-"

group SD GetTransactionsForGroupAccountWithinPeriod

participant "service: \nGetTransactionsForGroupAccountWithinPeriodService" as service
participant "personID\n:PersonID" as personID
participant "groupID:\nGroupID" as groupID
participant "groupRepo\n:GroupRepositoryDB" as groupRepo
participant "personRepo\n:PersonRepositoryDB" as personRepo
participant "accountRepo\n:AccountRepositoryDB" as accountRepo
participant "ledgerRepo\n:LedgerRepositoryDB" as ledgerRepo
participant "group\n:Group" as group
participant "accountID\n:AccountID" as accountID

'participant "ledgerID\n:LedgerID" as ledgerID
'participant "ledgerRepo\n:LedgerRepositoryDB" as ledgerRepo
'participant "debitAccountID\n: AccountID" as debitAccountID
'participant "creditAccountID\n: AccountID" as creditAccountID
participant "startDate\n: StartDate" as startDate
participant "endDate\n: EndDate" as endDate
participant "period\n: Period" as period
participant "listTransactionsDTO\n: List" as listTransactionsDto

participant "category\n:Category" as category
participant "ledger\n:Ledger" as ledger
participant "transaction\n:Transaction" as transaction
participant "CreateTransactionForGroupAssembler\n:CreateTransactionForGroupAssembler" as assemblerCreateTransactionForGroup
participant "TransactionsAssembler" as assemblerTransactionsAssembler
participant "GetTransactionsForGroupAccountWithinPeriodAssembler" as assemblerGetTransactionsForGroupAccountWithinPeriod


'participant "responseDTOTransaction:\nCreateTransactionForGroupResponseDTO" as GDTO
'participant "requestDTO: \nCreateTransactionForGroupRequestDTO" as requestDTO
'participant "aeccountRepo\n:AccountRepositoryDB" as accountRepo
'participant "amount\n: Amount" as amount
'participant "dateTime\n: DateTime" as dateTime
'participant "type\n: Type" as type
'participant "description\n: Description" as description
'participant "categoryDesignation\n: Designation" as designation

-> service : GetTransactionsForGroupAccountWithinPeriod \n (requestDTO)
activate service

note over ledger: requestDTO(personID : String, groupID : String, amount : String, dateTime : String, type : String,\n description : String, categoryDesignation : String, debitAccountID : String, creditAccountID : String)


'service -> requestDTO : groupID = getGroupID ()
service -> groupID* : (requestDTO.getGroupID ())
service -> groupRepo : group = findByID (groupID)

ref over groupRepo : findByID(groupID)

service -> personID* : (requestDTO.getPersonID ())

service -> group : validation1 = hasMember (personID)

service -> personRepo : person = findByID (personID)

service -> accountID* : (requestDTO.accountID ())

service -> group : validation2 = hasAccount (accountID)

service -> accountRepo : account = findByID (accountID)

service -> group : ledgerID = getLedgerID
service -> ledgerRepo : ledger = findByID (ledgerID)
ref over ledgerRepo : findByID(LedgerID)

service -> startDate* : (requestDTO.startDate ())
service -> endDate* : (requestDTO.endDate ())

'criar um Period'
service -> period* : (startDate, endDate)
'DATEFORMAT yyyy-MM-dd HH:mm:ss


service -> ledger : ListTransactions = getTransactionsOfAccountWithinPeriod (accountID, period)

service -> listTransactionsDto* : ()

loop transaction : transactions

'fazer um DTO de lista de listaTransferencias
'que vai ter um dto das transferencias (o do Tiago)


'acho que tenho de criar um novo response DTO
service -> assemblerCreateTransactionForGroup : CreateTransactionForGroupResponseDTO = mapToDTOResponse(group.getID().toStringDTO(), group.getDescription().getDescriptionValue(), requestDTO.getAmount(), requestDTO.getType(), requestDTO.getDescription())
activate assemblerTransactionsAssembler

service -> listTransactionsDto : add(CreateTransactionForGroupResponseDTO)

end loop

service -> responseDTO* : TransactionsResponseDTO

assemblerTransactionsAssembler --> service : TransactionsResponseDTO
deactivate assemblerTransactionsAssembler

<-- service : responseDTOTransaction
deactivate service

'getTransactionsOfAccountWithinPeriod

'service -> ledgerID* : (requestDTO.getLedgerID ())
'service -> ledgerRepo : ledger = findByID (ledgerID)


'service -> debitAccountID *: (requestDTO.getDebitAccountID ())
'service -> creditAccountID *: (requestDTO.getCreditAccountID ())
'service -> category *: (requestDTO.getCategoryDesignation ())

'opt groupRepo.existsById (groupID) && personRepo.existsById (accountID) && accountRepo.existsById (accountID)

'service -> requestDTO : amount = getAmount ()
'service -> amount *: (amount : String)
'service -> requestDTO : dateTime = getDateTime ()
'service -> dateTime *: (dateTime : String)
'service -> requestDTO : type = getType ()
'service -> type *: (type : String)
'service -> requestDTO : description = getDescription ()
'service -> description *: (description : String)
'service -> requestDTO : categoryDesignation = getCategoryDesignation ()
'service -> designation *: (categoryDesignation : String)
'service -> requestDTO : debitAccountID = getDebitAccountID ()
'service -> debitAccountID *: (debitAccountID : String)
'service -> requestDTO : creditAccountID = getCreditAccountID ()
'service -> creditAccountID *: (creditAccountID : String)

'service -> ledger : boolean = addTransaction (requestDTO.getAmount (), requestDTO.dateTime,() requestDTO.type (), requestDTO.description (), category, debitAccountID, creditAccountID)

'activate ledger
'ledger -> transaction* : (amount, \n dateTime, \n type, \n description, \n categoryDesignation, \n debitAccountID, \n creditAccountID)
'deactivate ledger

'service -> ledgerRepo : save (ledger)
'ref over ledgerRepo : save (ledger)
'
'service -> AssemblerCreateTransactionForGroup : responseDTOTransaction = mapToDTOResponse(group.getGroupID.toStringDTO (), group.getDescription.getDescription (), requestDTO.getAmount (), requestDTO.getType (), requestDTO.getDescription ())
'activate AssemblerCreateTransactionForGroup
''AssemblerCreateTransactionForGroup -> GDTO* : (group.getGroupID.toStringDTO (), \n group.getDescription.getDescription (),\n requestDTO.getAmount (), \n requestDTO.getType (), \n requestDTO.getDescription ())
'
'ref over AssemblerCreateTransactionForGroup : createResponseDTO
'
'
'AssemblerCreateTransactionForGroup --> service : responseDTOTransaction
'deactivate AssemblerCreateTransactionForGroup
'
'<-- service : responseDTOTransaction
'deactivate service

'end

end
@enduml