@startuml

skinparam monochrome true
skinparam packageStyle rect
skinparam defaultFontName FG Virgil
skinparam shadowing false
skinparam linetype ortho

class PersonTransactionsWithinPeriodController{

+ getPersonTransactionsWithinPeriod\n(person : Person, initialDate : String,\n finalDate : String)
}

class Person {
- name : Name
- address : Address
- birthplace : Birthplace
- birthdate : Birthdate
- mother : Person
- father : Person
+ getTransactionsWithinPeriod \n(initialDateTime : String \nfinalDateTime : String)
}

class Ledger {
+ getTransactionsWithinPeriod\n(initialDateTime : String,\nfinalDateTime : String)
}

class Transaction{
- amount : Amount
- dateTime : DateTime
- type : Type
- description : Description
- category : Category
- debitAccount : Account
- creditAccount : Account
+isDateBetween\n(initialDateTime : String,\nfinalDateTime : String)
}

PersonTransactionsWithinPeriodController ..> Person : uses
Person --right> " 0..1  "Ledger :"has"
Ledger --right> "*""Transaction" : registersTransactions

@enduml