@startuml

skinparam monochrome true
skinparam packageStyle rect
skinparam defaultFontName FG Virgil
skinparam shadowing false
skinparam linetype ortho

class PersonBalanceWithinPeriodController{
+ getBalanceWithinPeriod\n(person : Person, initialDateTime : String,\n finalDateTime : String)
}

class Person {
- name : Name
- address : Address
- birthplace : Birthplace
- birthdate : Birthdate
- mother : Person
- father : Person
+ getBalanceWithinPeriod\n(initialDateTime : String \nfinalDateTime : String)
}

class Ledger {
+ getBalanceWithinPeriod\n(initialDateTime : String \nfinalDateTime : String)
}

class Transaction{
- amount : Amount
- dateTime : DateTime
- type : Type
- description : Description
- category : Category
- debitAccount : Account
- creditAccount : Account
+getFactoredAmount()
+isDateBetween\n(initialDateTime : String \nfinalDateTime : String)
}

PersonBalanceWithinPeriodController ..> Person : uses
Person --right> "   0..1 "  Ledger: has
Ledger --right> "*" Transaction : registersTransactions


@enduml